Titre 1
Préface 3
Approbations 41
Table des psaumes 47
+48
Les Psaumes de David 1
    I. Beatus vir 1
    II. Quare fremuerunt gentes 9
    III. Domine quid multiplicati 19
    IV. Cum invocarem exaudivit me Deus 28
    V. Verba mea auribus percipe Domine 37
    VI. Domine ne in furore tuo arguas me 48
    VII. Domine Deus meus in te speravi 58
    VIII. Domine Deus noster 70
    IX. Confitebor tibi Domine 78
    X. In Domino confido 105
    XI. Salvum me fac Domine 112
    XII. Usquequo Domine oblivisceris 119
    XIII. Dixit insipiens in corde suo 125
    XIV. Domine quis habitabit 136
    XV. Conserva me Domine 142
    XVI. Exaudi Domine justitiam meam 152
    XVII. Diligam te Domine 165
    XVIII. Cæli enarrant gloriam Dei 193
    XIX. Exaudiat te Dominus 207
    XX. Domine in virtute tua 214
    XXI. Deus Deus meus respice in me 224
    XXII. Dominus regit me 247
    XXIII. Domini est terra & plenitudo ejus 255
    XXIV. Ad te Domine levavi animam meam 266
    XXV. Judica me Domine 281
    XXVI. Dominus illuminatio mea 290
    XXVII. Ad te Domine clamabo 305
    XXVIII. Afferte Domino filii Dei 315
    XXIX. Exaltabo te Domine 326
    XXX. In te Domine speravi 336
    XXXI. Beati quorum remissæ sunt 357
    XXXII. Exultate justi in Domino 369
    XXXIII. Benedicam Dominum in omni tempore 385
    XXXIV. Judica Domine nocentes me 402
    XXXV. Dixit injustus ut delinquat in semetipso 423
    XXXVI. Noli æmulari in malignantibus 434
    XXXVII. Domine ne in furoro tuo 459
    XXXVIII. Dixi : Custodiam vias meas 478
    XXXIX. Expectans expectavi Dominum 494
    XL. Beatus qui intelligit super egenum 513
    XLI. Quemadmodum desiderat cervus 527
    XLII. Judica me Deus & discerne causam meam 540
    XLIII. Deus auribus nostris audivimus 548
    XLIV. Eructavit cor meum verbum bonum 567
    XLV. Deus noster refugium & virtus 588
    XLVI. Omnes gentes plaudite manibus 598
    XLVII. Magnus Dominus & laudabilis nimis 605
    XLVIII. Audite hæc omnes gentes 617
    XLIX. Deus Deorum Dominus locutus est 633
    L. Miserere mei Deus 649
    LI. Quid gloriaris in malitia 666
    LII. Dixit insipiens in corde suo 676
    LIII. Deus in nomine tuo salvum me fac 680
    LIV. Exaudi Deus orationem meam 687
Table des choses principales 707
    Abraham 707
    Bœuf 708
    Cadès 708
    David 709
    Église 711
    Faute 711
    Grâce 712
    Homme 712
    Jérusalem 712
    Langue 714
    Malade 714
    Nations 715
    Oiseaux 715
    Paix 715
    Racheter 717
    Sacrifice 717
    Temple 718
    Vérité 718
    Yvresse 719
    Zèle 719
Note sur la présente édition 720
