Titre 1
Table des psaumes 3
+4
Les Psaumes de David 1
    CIV. Confitemini Domino, & invocate 1
    CV. Confitemini Domino quoniam bonus 22
    CVI. Confitemini Domino quoniam bonus 46
    CVII. Paratum cor meum Deus 68
    CVIII. Deus laudem meam ne tacueris 71
    CIX. Dixit Dominus Domino meo 91
    CX. Confitebor tibi Domine in toto corde meo 104
    CXI. Beatus vir qui timet Dominum 114
    CXII. Laudate pueri Dominum 124
    CXIII. In exitu Israël de Ægypto 130
    CXIV. Dilexi quoniam exaudiet Dominus 144
    CXV. Credidi, propter quod locutus sum 152
    CXVI. Laudate Dominum omnes gentes 162
    CXVII. Confitemini Domino quoniam bonus 165
    CXVIII. Beati immaculati in via 183
    CXIX. Ad Dominum cum tribularer clamavi 334
    CXX. Levavi oculos meos in montes 341
    CXXI. Lætatus sum in his quæ dicat sunt mihi 347
    CXXII. Ad te levavi oculos meos 355
    CXXIII. Nisi quia Dominus erat in nobis 359
    CXXIV. Qui confidunt in Domino 364
    CXXV. In convertendo Dominus captivitatem Sion 369
    CXXVI. Nisi Dominus ædificaverit domum 375
    CXXVII. Beati omnes qui timent Dominum 381
    CXXVIII. Sæpe expugnaverunt me a juventute mea 387
    CXXIX. De profundis clamavi ad te Domine 393
    CXXX. Domine non est exaltatum cor meum 398
    CXXXI. Memento Domine David 402
    CXXXII. Ecce quam bonum 418
    CXXXIII. Ecce nunc benedicite Dominum 422
    CXXXIV. Laudate Nomen Domini 425
    CXXXV. Confitemini Domino, quoniam bonus 433
    CXXXVI. Super flumina Babylonis 442
    CXXXVII. Confitebor tibi Domine in toto corde meo, quoniam 450
    CXXXVIII. Domine probasti me & cognovisti me 456
    CXXXIX. Eripe me Domine ab homine malo 470
    CXL. Domine clamavi ad te 479
    CXLI. Voce mea ad Dominum clamavi 490
    CXLII. Domine exaudi orationem meam, auribus 497
    CXLIII. Benedictus Dominus Deus meus 506
    CXLIV. Exaltabo te Deus meus Rex 516
    CXLV. Lauda anima mea Dominum 528
    CXLVI. Laudate Dominum quoniam bonus est Psalmus 534
    CXLVII. Lauda Jerusalem Dominum 541
    CXLVIII. Laudate Dominum de Cœlis 549
    CXLIX. Cantate Domino Canticum novum 555
    CL. Laudate Dominum in sanctis ejus 562
Table des choses principales 566
    Adorer 566
    Babylone 566
    Calomnie 566
    David 567
    Église 567
    Filet 568
    Grâce 568
    Haine 568
    Jacob 568
    Louange 569
    Maux 569
    Nabuchodonosor 569
    Occupation 569
    Parole 570
    Regard 570
    Sacerdoce 571
    Terre 571
    Vent 571
    Yeux 571
Note sur la présente édition 572
