Titre 1
Approbations 3
Table des psaumes 8
+10
Les Psaumes de David 1
    LV. Miserere mei Deus, quoniam 1
    LVI. Miserere mei Deus, miserere mei 12
    LVII. Si vere utique justitiam loquimini 20
    LVIII. Eripe me de inimicis meis 29
    LIX. Deus repulisti nos 42
    LX. Exaudi Deus deprecationem meam 54
    LXI. Nonne Deo subjecta erit 62
    LXII. Deus Deus meus, ad te de luce vigilo 72
    LXIII. Exaudi Deus orationem meam 81
    LXIV. Te decet hymnus Deus in Sion 89
    LXV. Jubilate Deo omnis terra, Psalmum dicite 103
    LXVI. Deus misereatur nostri 117
    LXVII. Exurgat Deus & dissipentur inimic ejus 123
    LXVIII. Salvum me fac Deus 151
    LXIX. Deus in adjutorium meum intende 179
    LXX. In te Domine speravi, non confundar in æternum 182
    LXXI. Deus judicium tuum regi da 197
    LXXII. Quam bonus Israël Deus 212
    LXXIII. Ut quid Deus repulisti in finem 226
    LXXIV. Confitebimur tibi Deus 242
    LXXV. Notus in Judæa Deus 249
    LXXVI. Voce mea ad Dominum clamavi 258
    LXXVII. Attendite popule meus 271
    LXXVIII. Deus venerunt gentes 305
    LXXIX. Qui regis Israël intende 316
    LXXX. Exultate Deo adjutori nostro 331
    LXXXI. Deus stetit in Synagoga Deorum 344
    LXXXII. Deus, quis similis erit tibi 352
    LXXXIII. Quam dilecta tabernacula tua 363
    LXXXIV. Benedixisti Domine terram tuam 375
    LXXXV. Inclina Domine aurem tuam 385
    LXXXVI. Fundamenta ejus in montibus sanctis 399
    LXXXVII. Domine Deus salutis meæ 405
    LXXXVIII. Misericordias Domini 420
    LXXXIX. Domine refugium factus es nobis 453
    XC. Qui habitat in adjutorio Altissimi 466
    XCI. Bonum est confiteri Domino 481
    XCII. Dominus regnavit, decorem indutus est 492
    XCIII. Deus ultionum Dominus 499
    XCIV. Venite exultemus Domino 513
    XCV. Cantate Domino canticum novum, cantate Domino 522
    XCVI. Dominus regnavit, exultet terra 533
    XCVII. Cantate Domino canticum novum, quia mirabilia fecit 544
    XCVIII. Dominus regnavit, irascantur populi 551
    XCIX. Jubilate Deo omnis terra 562
    C. Misericordiam & judicium cantabo 567
    CI. Domine exaudi orationem mea, & clamor meus 579
    CII. Benedic anima mea Domino, & omnia 599
    CIII. Benedic anima mea Domino : Domine Deus 615
Table des choses principales 637
    Affliction 637
    Batesme 638
    Charité 638
    David 639
    Eau 639
    Foiblesse 640
    Gedeon 640
    Iduméens 640
    Laver 641
    Manne 642
    Nuée 642
    Orgueil 642
    Pasteur 642
    Rahab 643
    Salut 643
    Temple 643
    Vangeance 644
    Zele 644
Note sur la présente édition 645
